{
  "particles": {
    "number": {
      "value": 80,
      "density": {
        "enable": true,
        "value_area": 500
      }
    },
    "color": {
      "value": "#442222"
    },
    "shape": {
      "type": "circle",
      "stroke": {
        "width": 1,
        "color": "#442222"
      },
      "polygon": {
        "nb_sides": 5
      }
    },
    "opacity": {
      "value": 0.2,
      "random": true,
      "anim": {
        "enable": true,
        "speed": 1,
        "opacity_min": 0.1,
        "sync": false
      }
    },
    "size": {
      "value": 2,
      "random": true,
      "anim": {
        "enable": false,
        "speed": 30,
        "size_min": 0.1,
        "sync": true
      }
    },
    "line_linked": {
      "enable": true,
      "distance": 110,
      "color": "#442222",
      "opacity": 0.2,
      "width": 1
    },
    "move": {
      "enable": true,
      "speed": 4,
      "direction": "none",
      "random": true,
      "straight": false,
      "out_mode": "in",
      "bounce": true,
      "attract": {
        "enable": false,
        "rotateX": 500,
        "rotateY": 1300
      }
    }
  },
  "interactivity": {
    "detect_on": "canvas",
    "events": {
      "onhover": {
        "enable": true,
        "mode": "repulse"
      },
      "onclick": {
        "enable": false,
        "mode": "repulse"
      },
      "resize": true
    },
    "modes": {
      "grab": {
        "distance": 400,
        "line_linked": {
          "opacity": 1
        }
      },
      "bubble": {
        "distance": 800,
        "size": 80,
        "duration": 2,
        "opacity": 0.8,
        "speed": 3
      },
      "repulse": {
        "distance": 70,
        "duration": 0.4
      },
      "push": {
        "particles_nb": 4
      },
      "remove": {
        "particles_nb": 2
      }
    }
  },
  "retina_detect": true
}
